<?xml version="1.0" encoding="utf-8"?>
<!-- Generator: Adobe Illustrator 21.0.0, SVG Export Plug-In . SVG Version: 6.00 Build 0)  -->
<svg version="1.1" id="Слой_1" xmlns="http://www.w3.org/2000/svg" xmlns:xlink="http://www.w3.org/1999/xlink" x="0px" y="0px"
	 width="300px" height="300px" viewBox="0 0 300 300" style="enable-background:new 0 0 300 300;" xml:space="preserve">
<style type="text/css">
	.st0{fill:#FEFEFE;}
</style>
<g id="Слой_x0020_1">
	<path class="st0" d="M288.7,191.2v0.4c-7.2,28.3-38.6,58.5-67.6,64.9h-0.4c-23.4,4.5-46.9,6.8-70.5,6.8c-7,0-14-0.2-20.9-0.6
		l-32,33.1c-7.9,8.3-21.9,2.7-21.9-8.7v-31.6c-27.9-7.9-57-37-63.8-64v-0.4c-8.7-39.5-8.7-79.6,0-119.2v-0.4
		c7-28.3,38.6-58.5,67.6-64.9h0.2c46.9-8.9,94.6-8.9,141.3,0h0.4c29.1,6.4,60.5,36.6,67.6,64.9V72
		C297.4,111.5,297.4,151.6,288.7,191.2z M215.6,32.1c-43.4-8.3-87.6-8.3-131.2,0c-19,4.3-42.8,27.1-47.7,45.7
		c-7.8,35.7-7.8,71.9,0,107.6c4.8,18.6,28.7,41.5,47.7,45.7l0,0c1,0.2,1.6,1,1.6,1.7v52.3c0,2.7,3.1,3.9,5,1.9l24.8-25.4
		c0,0,19.8-20.3,23.4-24c0.4-0.4,0.8-0.6,1.4-0.6c25,0.8,50.2-1.4,75-6c19.2-4.3,43-27.1,47.7-45.7c7.9-35.7,7.9-71.9,0-107.6
		C258.6,59.2,234.8,36.3,215.6,32.1z M216.4,188.1c-3.9,8.1-9.3,14.7-17.4,19.2c-2.1,1.2-4.8,1.6-7.4,2.3c-3.1-1-5.8-1.6-8.3-2.5
		c-26.9-11.2-51.5-25.6-71.1-47.7c-11.2-12.4-20-26.5-27.3-41.5c-3.5-7.2-6.4-14.5-9.3-21.9c-2.7-6.6,1.2-13.6,5.4-18.6
		c4.1-4.7,9.1-8.3,14.7-11c4.3-1.9,8.5-0.8,11.8,2.9c6.8,7.9,13,16.3,18,25.4c3.3,5.6,2.3,12.6-3.3,16.5c-1.4,1-2.7,1.9-3.9,3.1
		c-1.2,1-2.3,1.7-3.1,3.1c-1.4,2.3-1.4,5-0.4,7.6c7,19.2,18.6,34.1,38,42.1c3.1,1.4,6.2,2.9,9.7,2.3c6-0.6,7.9-7.2,12.2-10.7
		c4.1-3.3,9.3-3.3,13.8-0.6c4.3,2.9,8.5,5.8,12.8,8.9c4.3,2.9,8.3,5.8,12.2,9.1C217.2,179.4,218.5,183.6,216.4,188.1z M181.7,125.5
		c-1.7,0-1,0-0.4,0c-2.7,0-4.1-1.7-4.5-4.3c-0.2-1.9-0.4-3.7-0.8-5.6c-1-3.5-2.9-7-5.8-9.1c-1.6-1-3.1-1.7-4.8-2.3
		c-2.1-0.6-4.3-0.4-6.4-1c-2.5-0.6-3.7-2.5-3.3-4.7c0.2-1.9,2.1-3.5,4.5-3.3c13.6,1,23.3,7.9,24.6,24c0.2,1.2,0.2,2.3,0,3.3
		c-0.4,1.7-1.6,2.7-2.9,2.9C182.1,125.5,181.9,125.5,181.7,125.5z M173.2,88.9c-4.1-2.1-8.7-3.3-13.2-4.1c-2.1-0.4-4.1-0.6-6-0.8
		c-2.5-0.4-3.9-1.9-3.7-4.3c0-2.3,1.7-3.9,4.3-3.9c7.9,0.6,15.7,2.3,22.9,6c14.5,7.8,22.9,20,25.4,36.2c0.2,0.8,0.2,1.4,0.4,2.1
		c0,1.9,0.2,3.7,0.4,6.2c-0.2,0.4-0.2,1.4-0.4,2.3c-1,3.5-6.4,4.1-7.6,0.4c-0.4-1-0.4-2.1-0.4-3.3c0-7.6-1.6-14.9-5.4-21.3
		C186,97.8,180.1,92.1,173.2,88.9z M218.3,139c-2.9,0-4.3-2.3-4.3-4.8c-0.4-4.8-0.8-9.9-1.4-14.9c-3.7-26.2-24.6-47.9-50.6-52.5
		c-3.9-0.6-7.9-0.8-11.8-1.2c-2.5-0.4-5.8-0.4-6.4-3.5c-0.4-2.7,1.7-4.8,4.3-4.8c0.6-0.2,1.4,0,1.9,0c33.7,0.8,2.1,0,0.2,0
		c35.1,1,63.8,24.2,70,58.9c1.2,6,1.6,12,1.9,18C222.4,136.7,221,139,218.3,139z"/>
</g>
</svg>
