<svg xmlns="http://www.w3.org/2000/svg" xmlns:xlink="http://www.w3.org/1999/xlink" width="0" height="0" style="position:absolute">
	
	<symbol id="icon-svg-arrow" viewBox="0 0 190.1 308.2">
		<path d="M0 36L36 0l154.1 154L36 308.2 0 272.1 118.3 154z"></path>
	</symbol>

	<symbol id="icon-svg-menu" viewBox="0 0 344.339 344.339">
		<g>
			<rect y="46.06" width="344.339" height="29.52"/>
		</g>
		<g>
			<rect y="156.506" width="344.339" height="29.52"/>
		</g>
		<g>
			<rect y="268.748" width="344.339" height="29.531"/>
		</g>

	</symbol>

	<svg id="icon-svg-play" viewBox="0 0 41.999 41.999">
		<path d="M36.068,20.176l-29-20C6.761-0.035,6.363-0.057,6.035,0.114C5.706,0.287,5.5,0.627,5.5,0.999v40 c0,0.372,0.206,0.713,0.535,0.886c0.146,0.076,0.306,0.114,0.465,0.114c0.199,0,0.397-0.06,0.568-0.177l29-20 c0.271-0.187,0.432-0.494,0.432-0.823S36.338,20.363,36.068,20.176z"/>
	</svg>


	<symbol id="icon-svg-bond" viewBox="0 0 32.968 32.968">
		<path d="M15.202 19.38a.406.406 0 0 0-.352-.201H9.389a.404.404 0 0 0-.351.201l-2.594 4.494a.516.516 0 0 0-.192-.041H.479c-.266 0-.479.215-.479.481s.213.479.479.479h5.772a.475.475 0 0 0 .192-.04l2.594 4.495a.4.4 0 0 0 .351.201h5.462a.405.405 0 0 0 .352-.201l2.731-4.732a.403.403 0 0 0 0-.403l-2.731-4.733zm-.584 9.261H9.621l-2.498-4.327 2.498-4.327h4.997l2.499 4.327-2.499 4.327zm17.87-10.224h-5.6l-2.454-4.251H18.97l-2.732 4.729 2.732 4.734h5.464l2.454-4.253h5.6a.479.479 0 1 0 0-.959zM8.88 8.662l-2.573 4.457a.394.394 0 0 0 0 .403l2.731 4.731a.4.4 0 0 0 .351.202h5.462a.403.403 0 0 0 .352-.202l2.731-4.731a.403.403 0 0 0 0-.403l-2.526-4.375c.01-.01.021-.012.029-.021l3.722-4.413a.48.48 0 0 0-.734-.619l-3.722 4.412c-.021.027-.027.055-.044.081h-4.95c-.015-.026-.023-.054-.044-.081L5.944 3.691a.48.48 0 1 0-.733.619L8.88 8.662zm5.738 8.986H9.621L7.123 13.32l2.498-4.327h4.997l2.499 4.327-2.499 4.328z"></path>
	</symbol>

	<symbol id="icon-svg-brain" viewBox="0 0 190.496 190.497">
		<path d="M46.955 148.69c9.833-.52 16.05-3.731 18.483-9.559 1.039-2.474 1.146-5.117.812-7.683 2.262 1.192 5.159 2.304 8.15 2.304.583 0 1.161-.038 1.744-.126 3.03-.459 5.597-2.205 7.415-5.023a2.812 2.812 0 0 0-.84-3.875c-1.298-.819-3.037-.448-3.869.844-.964 1.499-2.088 2.287-3.535 2.517-3.621.574-8.321-2.561-9.84-3.809-.492-.416-1.081-.574-1.683-.59-1.053-2.102-2.234-3.87-3.198-4.958-11.138-12.461-11.608-22.708-11.62-22.862-.035-1.538-1.228-2.559-2.859-2.729a2.806 2.806 0 0 0-2.744 2.855c.012.497.381 12.306 13.043 26.468 2.353 2.654 5.912 9.62 3.859 14.528-1.904 4.558-8.449 5.85-13.603 6.123-1.541.088-2.729 1.4-2.65 2.933a2.796 2.796 0 0 0 2.79 2.665l.145-.023z"></path><path d="M46.238 89.557c-.016-.021 3.776-.572 7.711 8.747.281.679 2.886 6.671 8.237 8.258.7.208 1.557.366 2.532.366 1.784 0 3.967-.523 6.388-2.205a2.779 2.779 0 0 0 .711-3.89 2.781 2.781 0 0 0-3.889-.713c-1.55 1.068-2.919 1.429-4.137 1.068-2.379-.69-4.161-3.864-4.66-5.041-6.012-14.284-13.655-12.22-14.503-11.953-1.466.49-2.337 2.096-1.849 3.571.481 1.467 1.975 2.263 3.459 1.792zm26.521-16.104a2.813 2.813 0 0 0 1.518 3.661l1.071.211a2.806 2.806 0 0 0 2.59-1.729c8.059-19.466 1.064-46.698.772-47.847-.392-1.501-1.905-2.432-3.413-1.995a2.779 2.779 0 0 0-1.994 3.417c.054.268 6.801 26.542-.544 44.282zm-2.813 73.569c-1.518-.229-2.958.799-3.198 2.33a2.807 2.807 0 0 0 2.332 3.207c.117.011 10.555 1.768 13.296 12.214a2.801 2.801 0 0 0 2.706 2.09l.711-.099a2.789 2.789 0 0 0 1.99-3.414c-3.653-13.937-17.26-16.235-17.837-16.328zm4.797 24.689c-7.101 1.631-18.223-11.906-23.595-20.782a2.806 2.806 0 1 0-4.802 2.906c1.534 2.544 14.675 23.601 27.26 23.601.789 0 1.562-.087 2.342-.251a2.813 2.813 0 0 0 2.135-3.348c-.33-1.513-1.822-2.448-3.34-2.126zm-29.226-35.343a2.807 2.807 0 0 0 2.773-2.43 2.815 2.815 0 0 0-2.41-3.151c-6.106-.811-9.155-11.667-9.886-16.159 1.272-19.617-5.72-26.856-6.026-27.16a2.782 2.782 0 0 0-3.908-.017c-1.097 1.06-1.125 2.832-.09 3.945.058.063 5.577 6.17 4.412 23.166l.026.602c.122.799 3.04 19.622 14.729 21.171l.38.033z"></path><path d="M57.872 86.37a2.806 2.806 0 0 0 1.423 3.7l1.137.24a2.799 2.799 0 0 0 2.557-1.664c2.918-6.575-.143-18.112-.506-19.412l-.285-.679c-7.324-12.372 2.573-24.826 2.99-25.349.567-.694.701-1.567.523-2.38a40.08 40.08 0 0 0 3.187 3.322 2.817 2.817 0 0 0 1.907.747c.761 0 1.505-.304 2.055-.898a2.81 2.81 0 0 0-.145-3.962c-5.089-4.7-7.496-9.138-6.992-12.826.625-4.588 5.58-7.198 5.71-7.267a2.81 2.81 0 0 0 1.245-3.754 2.81 2.81 0 0 0-3.763-1.256c-.311.156-7.653 3.907-8.727 11.448-.583 4.057.787 8.265 3.999 12.569-1.132-.528-2.5-.298-3.335.717-.524.638-12.628 15.757-3.673 31.407.805 3.1 2.406 11.431.693 15.297zm27.747-.903c-.974 3.571-8.813 3.667-12.472 3.155-1.49-.161-2.949.851-3.168 2.382a2.814 2.814 0 0 0 2.389 3.166c.504.071 2.22.291 4.438.291 4.989 0 12.485-1.109 14.228-7.52a2.81 2.81 0 0 0-1.967-3.441c-1.493-.385-3.033.484-3.448 1.967z"></path><path d="M172.978 92.354c4.202-25.853-6.425-34.493-10.131-36.667 1.434-16.922-8.093-24.146-11.193-26.017-.275-3.103-1.152-6.017-2.711-8.706-5.986-10.271-19.382-13.58-21.284-14.009C123.251 2.364 118.551 0 113.599 0l-.261.005c-8.506.14-15.001 7.163-18.074 11.229C92.187 7.168 85.692.145 77.186.005L76.922 0c-4.945 0-9.649 2.364-14.052 6.955-1.906.429-15.297 3.737-21.294 14.009-1.557 2.688-2.449 5.603-2.706 8.706-3.1 1.871-12.63 9.094-11.195 26.011-3.688 2.175-14.334 10.811-10.131 36.668-1.037 1.934-7.571 14.832-4.086 27.199.812 2.851 2.164 5.395 3.885 7.71-.325 3.235-.731 18.518 18.037 32.558 7.16 5.365 13.907 13.188 20.049 23.229l.604.705c.385.328 8.349 6.747 17.885 6.747 1.793 0 3.647-.229 5.512-.783 6.624-1.903 11.901-7.286 15.804-15.945 3.896 8.659 9.182 14.042 15.802 15.945 1.872.554 3.722.783 5.511.783 9.538-.005 17.499-6.419 17.895-6.747l.603-.705c6.14-10.035 12.879-17.855 20.05-23.229 18.733-14.02 18.346-29.297 18.022-32.553 1.746-2.314 3.092-4.864 3.891-7.715 3.543-12.349-2.98-25.238-4.03-27.194zm-80.966 74.487c-3.368 9.871-8.09 15.754-14.074 17.488-7.986 2.343-16.227-3.354-17.986-4.662-6.434-10.43-13.572-18.62-21.197-24.339-11.287-8.45-14.619-17.122-15.55-22.496.9.641 1.759 1.298 2.775 1.872l1.365.345c.981 0 1.933-.513 2.447-1.434a2.794 2.794 0 0 0-1.069-3.814c-13.756-7.688-11.286-21.691-8.517-29.499l1.3.36.628-.07a2.802 2.802 0 0 0 2.101-3.366c-5.279-22.864.783-32.082 4.433-35.387.696 3.204 1.707 6.651 3.199 10.444a2.802 2.802 0 0 0 2.605 1.77l1.037-.194c1.441-.572 2.148-2.203 1.576-3.63-8.194-20.701-1.924-30.266 2.208-33.987.25 1.346.502 2.692.962 4.093a2.796 2.796 0 0 0 2.668 1.937l.856-.134a2.79 2.79 0 0 0 1.796-3.53c-1.84-5.694-1.556-10.676.849-14.826 2.481-4.293 6.85-7.122 10.634-8.887a2.759 2.759 0 0 0 1.214 2.936 2.798 2.798 0 0 0 3.861-.856C66.935 9.41 71.922 5.582 76.932 5.582l.145.005c7.382.112 13.372 8.356 14.922 10.698l.013 150.556zm59.772-11.512c-7.634 5.724-14.764 13.914-21.198 24.35-1.754 1.313-9.978 6.984-17.956 4.663-5.981-1.73-10.726-7.606-14.102-17.484V16.295c2.223-3.447 8.208-10.574 14.912-10.681l.146-.006c5.019 0 9.987 3.839 14.809 11.393a2.795 2.795 0 0 0 3.862.856c1.019-.643 1.447-1.828 1.215-2.936 3.792 1.77 8.143 4.593 10.627 8.881 2.408 4.148 2.688 9.138.849 14.827a2.803 2.803 0 0 0 1.794 3.53l.859.134a2.799 2.799 0 0 0 2.665-1.938c.459-1.401.711-2.752.968-4.096 4.121 3.727 10.402 13.284 2.212 33.989a2.797 2.797 0 0 0 1.575 3.631l1.03.197a2.8 2.8 0 0 0 2.605-1.771 66.14 66.14 0 0 0 3.204-10.436c3.645 3.305 9.707 12.518 4.435 35.377a2.808 2.808 0 0 0 2.102 3.365l.627.071 1.254-.335c1.621 4.613 3.162 11.345 1.378 17.681-1.39 4.958-4.706 8.925-9.838 11.786a2.807 2.807 0 0 0 1.378 5.254l1.368-.351c1.013-.569 1.866-1.23 2.759-1.865-.914 5.365-4.262 14.039-15.539 22.477z"></path><path d="M119.125 19.949c.05.027 5.031 2.634 5.686 7.228.542 3.691-1.882 8.143-6.98 12.859a2.806 2.806 0 0 0 1.911 4.86c.677 0 1.35-.25 1.904-.747a44.96 44.96 0 0 0 3.188-3.317c-.181.812-.055 1.686.524 2.38.106.124 10.355 12.911 2.988 25.349l-.285.673c-.35 1.289-3.419 12.837-.503 19.412a2.796 2.796 0 0 0 2.562 1.664l1.132-.24a2.806 2.806 0 0 0 1.423-3.7c-1.546-3.48-.421-11.073.695-15.292 8.952-15.655-3.161-30.769-3.688-31.407-.813-1.009-2.194-1.245-3.325-.717 3.218-4.303 4.586-8.512 4.004-12.569-1.066-7.541-8.416-11.291-8.728-11.447a2.812 2.812 0 0 0-3.76 1.256 2.801 2.801 0 0 0 1.252 3.755zm24.756 123.15c-5.155-.274-11.703-1.55-13.604-6.124-2.045-4.914 1.518-11.88 3.863-14.522 12.667-14.156 13.022-25.981 13.034-26.474a2.793 2.793 0 0 0-2.726-2.846c-1.579-.079-2.823 1.183-2.877 2.715 0 .109-.447 10.38-11.612 22.873-.975 1.071-2.156 2.85-3.201 4.946-.591.022-1.188.186-1.69.602-1.514 1.247-6.188 4.366-9.828 3.81-1.453-.231-2.583-1.041-3.535-2.524-.837-1.3-2.582-1.679-3.868-.842a2.797 2.797 0 0 0-.843 3.875c1.816 2.83 4.383 4.568 7.414 5.028.58.093 1.162.119 1.736.119 2.997 0 5.887-1.104 8.152-2.303-.34 2.566-.22 5.197.817 7.677 2.428 5.834 8.644 9.04 18.481 9.565l.139.005a2.801 2.801 0 0 0 2.801-2.665c.077-1.514-1.11-2.834-2.653-2.915z"></path><path d="M126.759 101.199c-1.229.346-2.577.011-4.137-1.072a2.79 2.79 0 0 0-3.896.712 2.809 2.809 0 0 0 .711 3.896c2.432 1.675 4.603 2.199 6.396 2.199.975 0 1.83-.153 2.53-.36 5.346-1.576 7.96-7.584 8.232-8.241 3.814-9.048 7.427-8.75 7.694-8.769 1.45.416 2.922-.392 3.403-1.809.481-1.475-.312-3.059-1.766-3.546-.858-.281-8.488-2.345-14.502 11.962-.496 1.154-2.29 4.328-4.665 5.028zm-11.568-23.868l1.074-.211a2.8 2.8 0 0 0 1.514-3.661c-7.332-17.705-.589-44.014-.536-44.277a2.79 2.79 0 0 0-2.003-3.417c-1.505-.427-3.021.503-3.404 1.995-.306 1.149-7.28 28.38.774 47.847a2.777 2.777 0 0 0 2.581 1.724zm6.282 75.228a2.793 2.793 0 0 0 2.325-3.193c-.243-1.535-1.718-2.562-3.198-2.333-.58.093-14.181 2.391-17.852 16.328a2.794 2.794 0 0 0 1.986 3.415l.713.099c1.251 0 2.39-.832 2.709-2.091 2.723-10.32 12.83-12.149 13.317-12.225zm21.762-2.571c-1.303-.794-3.043-.378-3.848.941-5.373 8.876-16.524 22.436-23.594 20.782-1.521-.322-3.011.612-3.348 2.125a2.805 2.805 0 0 0 2.121 3.353 11.75 11.75 0 0 0 2.353.252c12.588 0 25.724-21.057 27.25-23.602a2.78 2.78 0 0 0-.934-3.851zm21.314-58.587a2.808 2.808 0 0 0-.027-3.934 2.807 2.807 0 0 0-3.963 0c-.306.304-7.299 7.543-6.019 27.16-.688 4.246-3.797 15.349-9.894 16.159a2.82 2.82 0 0 0-2.405 3.151 2.808 2.808 0 0 0 2.772 2.43l.374-.02c11.691-1.562 14.604-20.386 14.73-21.185l.025-.591c-1.148-16.863 4.264-23.002 4.407-23.17zm-46.368 2.775a2.815 2.815 0 0 0 2.386-3.166 2.845 2.845 0 0 0-3.165-2.383c-2.373.343-11.397.791-12.486-3.154-.405-1.494-1.938-2.354-3.437-1.965a2.801 2.801 0 0 0-1.97 3.439c1.745 6.411 9.236 7.519 14.232 7.519a35.453 35.453 0 0 0 4.44-.29z"></path>
	</symbol>

	<symbol id="icon-svg-clock" viewBox="0 0 512 512">
		<path d="M400 496h-8v-71.38c0-17.938-5.456-35.201-15.777-49.923l-82.552-117.75 82.569-118.693C386.55 123.432 392 106.055 392 88V16h8a8 8 0 0 0 0-16H112a8 8 0 0 0 0 16h8v72c0 18.055 5.45 35.432 15.76 50.253l82.569 118.693-82.552 117.75C125.456 389.419 120 406.682 120 424.62V496h-8a8 8 0 0 0 0 16h288a8 8 0 0 0 0-16zm-264-71.38c0-14.634 4.453-28.722 12.878-40.739l85.76-122.324a8.002 8.002 0 0 0 .017-9.161l-85.76-123.28C140.459 116.99 136 102.772 136 88V16h240v72c0 14.772-4.459 28.99-12.895 41.117l-85.76 123.28a7.998 7.998 0 0 0 .017 9.161l85.76 122.324C371.547 395.898 376 409.986 376 424.62V496H136v-71.38z"></path><path d="M304.005 464h-16.001a8 8 0 0 0 0 16h16.001a8 8 0 0 0 0-16zM256 249.314a8 8 0 0 0 6.766-3.731c1.774-2.668 34.496-49.8 56.188-81.018A8.001 8.001 0 0 0 312.385 152h-112.77a8 8 0 0 0-6.569 12.564c21.693 31.218 54.415 78.35 56.188 81.018a8 8 0 0 0 6.766 3.732zM297.085 168c-22.897 32.959-34.837 50.177-41.085 59.214-6.248-9.037-18.188-26.255-41.085-59.214h82.17z"></path><path d="M312.401 339.408a8 8 0 0 0-6.55-3.408h-99.702a7.997 7.997 0 0 0-6.55 3.408l-37.62 53.659C155.451 402.378 152 413.29 152 424.62V472a8 8 0 0 0 8 8h96.003a8 8 0 0 0 0-16H168v-39.38c0-8.027 2.448-15.762 7.08-22.369L210.311 352h91.379l35.23 50.251c4.632 6.607 7.081 14.342 7.081 22.369V464h-8a8 8 0 0 0 0 16h16a8 8 0 0 0 8-8v-47.38c0-11.331-3.451-22.242-9.979-31.554l-37.621-53.658zm17.676-204.84a7.965 7.965 0 0 0 4.562 1.433 7.99 7.99 0 0 0 6.574-3.432l8.758-12.59A55.74 55.74 0 0 0 360 88v-8a8 8 0 0 0-16 0v8a39.815 39.815 0 0 1-7.164 22.843l-8.758 12.59a8 8 0 0 0 1.999 11.135zM352 56a8 8 0 0 0 8-8v-8a8 8 0 0 0-16 0v8a8 8 0 0 0 8 8z"></path>
	</symbol>

	<symbol id="icon-svg-drop" viewBox="0 0 149 133">
		<path class="fil0" d="M74 133l38-67 37-66H0l37 66z"></path>
	</symbol>

	<symbol id="icon-svg-fb" viewBox="0 0 96.124 96.123">
		<path d="M72.089.02L59.624 0C45.62 0 36.57 9.285 36.57 23.656v10.907H24.037a1.96 1.96 0 0 0-1.96 1.961v15.803a1.96 1.96 0 0 0 1.96 1.96H36.57v39.876a1.96 1.96 0 0 0 1.96 1.96h16.352a1.96 1.96 0 0 0 1.96-1.96V54.287h14.654a1.96 1.96 0 0 0 1.96-1.96l.006-15.803a1.963 1.963 0 0 0-1.961-1.961H56.842v-9.246c0-4.444 1.059-6.7 6.848-6.7l8.397-.003a1.96 1.96 0 0 0 1.959-1.96V1.98A1.96 1.96 0 0 0 72.089.02z"></path>
	</symbol>

	<symbol id="icon-svg-hat" viewBox="0 0 470 470">
		<path d="M418.499 185.857H308.465a78.017 78.017 0 0 0-6.793-14.791c15.008-17.008 27.289-36.543 36.547-58.15 14.794-34.528 20.465-71.279 16.398-106.281a7.502 7.502 0 0 0-11.962-5.126c-28.148 21.198-50.846 50.654-65.641 85.181-7.146 16.676-12.175 33.905-14.999 51.348-8.577-3.137-17.754-4.769-27.018-4.769s-18.441 1.632-27.018 4.769c-2.823-17.443-7.853-34.672-14.998-51.348-14.795-34.527-37.493-63.983-65.641-85.181a7.5 7.5 0 0 0-11.962 5.126c-4.066 35.001 1.604 71.753 16.399 106.281 9.258 21.607 21.539 41.142 36.547 58.151a77.98 77.98 0 0 0-6.793 14.79H51.501c-12.407 0-22.5 10.093-22.5 22.5s10.093 22.5 22.5 22.5h74.593l-18.077 231.059a7.499 7.499 0 0 0 7.477 8.085h239.013a7.5 7.5 0 0 0 7.477-8.085l-18.077-231.059H418.5c12.407 0 22.5-10.093 22.5-22.5s-10.094-22.5-22.501-22.5zm-235.264-20.684c-15.623-16.726-28.295-36.295-37.667-58.165-11.791-27.518-17.361-56.491-16.35-84.603 21.052 18.658 38.188 42.675 49.979 70.193 7.938 18.526 13.073 37.764 15.261 57.178a7.498 7.498 0 0 0 10.975 5.781c9.094-4.837 19.042-7.29 29.568-7.29s20.474 2.453 29.568 7.29a7.5 7.5 0 0 0 10.975-5.781c2.188-19.415 7.322-38.652 15.261-57.178 11.791-27.518 28.926-51.535 49.978-70.193 1.011 28.112-4.559 57.084-16.35 84.602-9.372 21.871-22.044 41.44-37.667 58.165a7.5 7.5 0 0 0-.655 9.433 62.995 62.995 0 0 1 6.283 11.251H177.606a62.952 62.952 0 0 1 6.283-11.25 7.5 7.5 0 0 0-.654-9.433zm149.353 113.33h-21.891a7.5 7.5 0 0 0 0 15h23.065L346.397 455H123.604l12.635-161.497h144.459a7.5 7.5 0 0 0 0-15H137.412l3.728-47.646h187.722l3.726 47.646zm85.911-62.646H51.501c-4.136 0-7.5-3.364-7.5-7.5s3.364-7.5 7.5-7.5h366.998c4.136 0 7.5 3.364 7.5 7.5s-3.364 7.5-7.5 7.5z"></path>
	</symbol>

	<symbol id="icon-svg-logo" viewBox="0 0 41975 13020">
		<path class="fil0" d="M4079 2812H2587l-284 2863h1474l302-2863zm492 0l-302 2863h1777l-35 422H4226l-302 2803h-491l301-2803H2251l-293 2803h-492l302-2803H0l43-422h1768l302-2863H328l43-432h1776L2389 60h492l-242 2320h1475L4355 60h492l-242 2320h1786l-43 432H4571zm4260-1475v6304h777c440 0 707-233 707-862V2191c0-630-268-854-707-854h-777zM7443 78h2191c1388 0 2069 767 2069 2182v4458c0 1415-681 2182-2069 2182H7443V78zm5140 0h1389v8822h-1389zm3778 3717h1906v1259h-1906v2587h2397v1259h-3777V78h3777v1259h-2397zM23459 78v1233l-2640 6330h2640v1259h-4063V7667l2639-6330h-2509V78zm2345 8822V604h-1802V78h4165v526h-1785v8296zm6106-4743v535h-2406v3674h2898v534h-3476V78h3476v526h-2898v3553zm5201-1923v724h-552v-767c0-941-362-1665-1337-1665-966 0-1337 724-1337 1665v4588c0 949 371 1656 1337 1656 975 0 1337-707 1337-1656V5735h552v1009c0 1268-552 2225-1897 2225-1354 0-1906-957-1906-2225V2234c0-1277 552-2234 1906-2234 1345 0 1897 957 1897 2234zm1527 2518v4148h-578V78h578v4148h2751V78h586v8822h-586V4752z"></path><path class="fil1" d="M23931 12987h673c420 0 630-236 630-664v-1362c0-437-210-672-630-672h-673v2698zm664-2312c135 0 210 68 210 261v1404c0 193-75 260-210 260h-243v-1924h243v-1zm908 2312h420v-2698h-420v2698zm1361-1118h194v496c0 193-84 260-219 260-134 0-218-67-218-260v-1454c0-194 84-261 218-261 135 0 219 67 219 261v286h403v-261c0-429-218-672-630-672-420 0-630 243-630 672v1403c0 429 210 681 630 681 412 0 630-252 630-681v-857h-597v387zm866 1118h429v-2698h-429v2698zm614-2312h437v2312h428v-2312h437v-386h-1302v386zm2286-386h-622l-429 2698h387l75-488h521l68 488h428l-428-2698zm-337 479l210 1361h-411l201-1361zm958 2219h1127v-387h-698v-2311h-429v2698zm2891-547l101 547h303l-513-2698h-437l-513 2698h278l101-547h680zm-344-1807l302 1555h-605l303-1555zm1563-369c-412 0-605 269-605 680v1396c0 403 193 672 605 672s605-269 605-672v-799h-563v269h278v538c0 244-93 395-311 395-219 0-320-151-320-395v-1420c0-244 101-387 320-387 218 0 311 143 311 387v243h285v-227c0-411-193-680-605-680zm1193 1218v-916h807v-277h-1109v2698h1109v-278h-807v-958h656v-269h-656zm1345-672l689 2177h311v-2698h-260v1950l-622-1950h-387v2698h269v-2177zm1891-546c-412 0-605 269-605 680v1396c0 403 193 672 605 672 420 0 614-269 614-672v-337h-286v345c0 244-101 395-319 395-211 0-311-151-311-395v-1420c0-244 100-387 311-387 218 0 319 143 319 387v260h286v-244c0-411-194-680-614-680zm1320 2723h294v-967l571-1731h-277l-429 1328-420-1328h-311l572 1731v967z"></path>
	</symbol>

	<symbol id="icon-svg-logo-clean" viewBox="0 0 400 84.8">
		<path d="M39 26.8H24.8L22.1 54h14L39 26.8zm4.7 0L40.8 54h16.9l-.3 4h-17l-2.9 26.7h-4.7L35.7 58H21.6l-2.8 26.7h-4.7L17 58.1H.1l.4-4h16.8l2.9-27.3h-17l.4-4.1h16.9L22.8.6h4.7l-2.3 22.1h14L41.5.6h4.7L44 22.7h17l-.4 4.1H43.7zm40.5-14.1v60h7.4c4.2 0 6.7-2.2 6.7-8.2V20.9c0-6-2.6-8.1-6.7-8.1h-7.4v-.1zM71 .7h20.9c13.2 0 19.7 7.3 19.7 20.8V64c0 13.5-6.5 20.8-19.7 20.8H71V.7zm49 0h13.2v84.1H120zm35.9 35.4h18.2v12h-18.2v24.7h22.9v12h-36V.7h36v12h-22.9zM223.5.7v11.8l-25.1 60.3h25.1v12h-38.7V73L210 12.7h-23.9V.7zm22.4 84.1v-79h-17.2V.7h39.7v5.1h-17v79zM304 39.6v5.1h-22.9v35h27.6v5.1h-33.1V.7h33.1v5.1h-27.6v33.8zm49.6-18.3v6.9h-5.3v-7.3c0-9-3.4-15.9-12.7-15.9-9.2 0-12.7 6.9-12.7 15.9v43.7c0 9 3.5 15.8 12.7 15.8 9.3 0 12.7-6.7 12.7-15.8v-9.9h5.3v9.6c0 12.1-5.3 21.2-18.1 21.2-12.9 0-18.2-9.1-18.2-21.2v-43c0-12.2 5.3-21.3 18.2-21.3 12.8 0 18.1 9.1 18.1 21.3zm14.5 24v39.5h-5.5V.7h5.5v39.5h26.2V.7h5.6v84.1h-5.6V45.3z"></path>
	</symbol>

	<symbol id="icon-svg-telegram" viewBox="0 0 300 300">
		<style>.st0{fill:#fefefe}</style><path class="st0" d="M241.4 290c-2.3 0-4.7-.7-6.6-2l-75.4-51.2-40.4 29.1c-3.1 2.3-7.2 2.9-10.9 1.6-3.7-1.3-6.5-4.4-7.4-8.2l-20.4-76.9-72.4-27.7c-4.6-1.7-7.7-6.1-7.7-11 0-4.8 2.9-9.2 7.4-11L283.3 23c1.2-.6 2.5-.8 4-1h1.4c2.8.1 5.4 1.3 7.6 3.4.2.2.5.5.6.7 1.8 1.9 2.8 4.4 2.9 7 .1.6.1 1.2 0 1.8 0 .5-.1 1-.1 1.4l-46.6 244c-.7 4-3.4 7.2-7.1 8.7-1.5.6-3 1-4.6 1zM166 212.7l67.1 45.4 36.2-189.9L138.6 194l27.2 18.5c.1 0 .2.1.2.2zm-55.8-10.2l9 34 19.4-13.9-25.4-17.3c-1.1-.6-2.2-1.6-3-2.8zm-65.5-59.1l49.7 19.1c3.6 1.3 6.4 4.3 7.3 8l6.2 23.9c.4-2.8 1.6-5.3 3.6-7.3L236.2 67.2 44.7 143.4z" id="Слой_x0020_1"></path>
	</symbol>

	<symbol id="icon-svg-viber" viewBox="0 0 300 300">
		<style>.st0{fill:#fefefe}</style><path class="st0" d="M288.7 191.2v.4c-7.2 28.3-38.6 58.5-67.6 64.9h-.4c-23.4 4.5-46.9 6.8-70.5 6.8-7 0-14-.2-20.9-.6l-32 33.1c-7.9 8.3-21.9 2.7-21.9-8.7v-31.6c-27.9-7.9-57-37-63.8-64v-.4c-8.7-39.5-8.7-79.6 0-119.2v-.4c7-28.3 38.6-58.5 67.6-64.9h.2c46.9-8.9 94.6-8.9 141.3 0h.4c29.1 6.4 60.5 36.6 67.6 64.9v.5c8.7 39.5 8.7 79.6 0 119.2zM215.6 32.1c-43.4-8.3-87.6-8.3-131.2 0-19 4.3-42.8 27.1-47.7 45.7-7.8 35.7-7.8 71.9 0 107.6 4.8 18.6 28.7 41.5 47.7 45.7 1 .2 1.6 1 1.6 1.7v52.3c0 2.7 3.1 3.9 5 1.9l24.8-25.4s19.8-20.3 23.4-24c.4-.4.8-.6 1.4-.6 25 .8 50.2-1.4 75-6 19.2-4.3 43-27.1 47.7-45.7 7.9-35.7 7.9-71.9 0-107.6-4.7-18.5-28.5-41.4-47.7-45.6zm.8 156c-3.9 8.1-9.3 14.7-17.4 19.2-2.1 1.2-4.8 1.6-7.4 2.3-3.1-1-5.8-1.6-8.3-2.5-26.9-11.2-51.5-25.6-71.1-47.7-11.2-12.4-20-26.5-27.3-41.5-3.5-7.2-6.4-14.5-9.3-21.9-2.7-6.6 1.2-13.6 5.4-18.6 4.1-4.7 9.1-8.3 14.7-11 4.3-1.9 8.5-.8 11.8 2.9 6.8 7.9 13 16.3 18 25.4 3.3 5.6 2.3 12.6-3.3 16.5-1.4 1-2.7 1.9-3.9 3.1-1.2 1-2.3 1.7-3.1 3.1-1.4 2.3-1.4 5-.4 7.6 7 19.2 18.6 34.1 38 42.1 3.1 1.4 6.2 2.9 9.7 2.3 6-.6 7.9-7.2 12.2-10.7 4.1-3.3 9.3-3.3 13.8-.6 4.3 2.9 8.5 5.8 12.8 8.9 4.3 2.9 8.3 5.8 12.2 9.1 3.7 3.3 5 7.5 2.9 12zm-34.7-62.6h-.4c-2.7 0-4.1-1.7-4.5-4.3-.2-1.9-.4-3.7-.8-5.6-1-3.5-2.9-7-5.8-9.1-1.6-1-3.1-1.7-4.8-2.3-2.1-.6-4.3-.4-6.4-1-2.5-.6-3.7-2.5-3.3-4.7.2-1.9 2.1-3.5 4.5-3.3 13.6 1 23.3 7.9 24.6 24 .2 1.2.2 2.3 0 3.3-.4 1.7-1.6 2.7-2.9 2.9.2.1 0 .1-.2.1zm-8.5-36.6c-4.1-2.1-8.7-3.3-13.2-4.1-2.1-.4-4.1-.6-6-.8-2.5-.4-3.9-1.9-3.7-4.3 0-2.3 1.7-3.9 4.3-3.9 7.9.6 15.7 2.3 22.9 6 14.5 7.8 22.9 20 25.4 36.2.2.8.2 1.4.4 2.1 0 1.9.2 3.7.4 6.2-.2.4-.2 1.4-.4 2.3-1 3.5-6.4 4.1-7.6.4-.4-1-.4-2.1-.4-3.3 0-7.6-1.6-14.9-5.4-21.3-3.9-6.6-9.8-12.3-16.7-15.5zm45.1 50.1c-2.9 0-4.3-2.3-4.3-4.8-.4-4.8-.8-9.9-1.4-14.9-3.7-26.2-24.6-47.9-50.6-52.5-3.9-.6-7.9-.8-11.8-1.2-2.5-.4-5.8-.4-6.4-3.5-.4-2.7 1.7-4.8 4.3-4.8.6-.2 1.4 0 1.9 0 33.7.8 2.1 0 .2 0 35.1 1 63.8 24.2 70 58.9 1.2 6 1.6 12 1.9 18 .3 2.5-1.1 4.8-3.8 4.8z" id="Слой_x0020_1"></path>
	</symbol>

	<symbol id="icon-svg-whatsapp" viewBox="0 0 300 300">
		<style>.st0{fill:#fefefe}</style><path class="st0" d="M300 146.2c0 80.6-65.9 146.2-147.2 146.2-25.9 0-50.1-6.6-71.2-18.3L0 300l26.5-78.3c-13.4-22.1-21.1-48-21.1-75.5C5.4 65.4 71.4 0 152.8 0 234.1 0 300 65.4 300 146.2zm-147.2-123c-68.4 0-124 55.1-124 123 0 26.9 8.7 51.8 23.6 72l-15.5 45.7 47.6-15.2c19.6 12.9 43 20.3 68.2 20.3 68.2 0 123.8-55.1 123.8-122.8.1-67.9-55.5-123-123.7-123zm74.3 156.6c-1-1.5-3.3-2.5-6.9-4.1-3.6-1.8-21.4-10.5-24.7-11.7-3.3-1.2-5.6-1.8-8.1 1.8-2.5 3.5-9.4 11.5-11.4 14-2.1 2.3-4.3 2.6-7.9.8-3.6-1.6-15.2-5.6-29-17.6-10.7-9.6-18-21.3-20.1-24.9s-.2-5.6 1.6-7.3c1.5-1.6 3.6-4.3 5.3-6.3 1.8-2.1 2.5-3.6 3.6-6.1 1.3-2.3.7-4.5-.2-6.3-1-1.8-8.2-19.5-11.2-26.5-3-7.3-5.9-5.9-8.1-5.9-2.1 0-4.6-.3-6.9-.3-2.5 0-6.4.8-9.7 4.5-3.3 3.6-12.5 12.2-12.5 29.8s12.9 34.8 14.7 37.1c1.8 2.5 25.1 39.7 61.6 54.1 36.8 14.3 36.8 9.6 43.4 9.1 6.6-.7 21.4-8.7 24.4-17.1 3-8.5 3-15.6 2.1-17.1z" id="Слой_x0020_1"></path>
	</symbol>

</svg>
